PS9594A: Computational Text Analysis
…
1.2 Get Data

Mendenhall (1887) argued that “every writer makes use of a vocabulary which is peculiar to himself, and the character of which does not materially change from year to
year during his productive,” and that one of these characteristics was the length of words. Mendenhall (1901) takes this further, and suggests that, given this assumption, Shakespeare and Bacon were not the same person2.

Let’s get a corpus–a collection of documents–that we can analyze. We can search the Gutenberg repository and create a corpus with some selected work.

gutenberg_metadata %>%
  filter(author == "Wilde, Oscar")

## # A tibble: 66 × 8
##    gutenberg_id title    author gutenberg_author_id language gutenberg_bookshelf
##           <int> <chr>    <chr>                <int> <chr>    <chr>              
##  1          174 The Pic… Wilde…                 111 en       "Gothic Fiction/Mo…
##  2          301 The Bal… Wilde…                 111 en       ""                 
##  3          773 Lord Ar… Wilde…                 111 en       "Contemporary Revi…
##  4          774 Essays … Wilde…                 111 en       ""                 
##  5          790 Lady Wi… Wilde…                 111 en       ""                 
##  6          844 The Imp… Wilde…                 111 en       "Plays"            
##  7          854 A Woman… Wilde…                 111 en       "Plays"            
##  8          873 A House… Wilde…                 111 en       "Opera"            
##  9          875 The Duc… Wilde…                 111 en       ""                 
## 10          885 An Idea… Wilde…                 111 en       "Plays"            
## # ℹ 56 more rows
## # ℹ 2 more variables: rights <chr>, has_text <lgl>
…
Now, we can change our unit of analysis to the token:

wilde_words <- wilde %>%
  # take the column text and divide it by words
  unnest_tokens(word, text) %>%
  # Remove some characters that add noise
  mutate(word = str_remove_all(word, "\\_")) 

## mutate: changed 1,225 values (2%) of 'word' (0 new NA)

wilde_words

## # A tibble: 60,465 × 4
##    gutenberg_id title                 author       word     
##           <int> <chr>                 <chr>        <chr>    
##  1          790 Lady Windermere's Fan Wilde, Oscar by       
##  2          790 Lady Windermere's Fan Wilde, Oscar sixteenth
##  3          790 Lady Windermere's Fan Wilde, Oscar edition  
##  4          790 Lady Windermere's Fan Wilde, Oscar first    
##  5          790 Lady Windermere's Fan Wilde, Oscar published
##  6          790 Lady Windermere's Fan Wilde, Oscar 1893     
##  7          790 Lady Windermere's Fan Wilde, Oscar first    
##  8          790 Lady Windermere's Fan Wilde, Oscar issued   
##  9          790 Lady Windermere's Fan Wilde, Oscar by       
## 10          790 Lady Windermere's Fan Wilde, Oscar methuen  
## # ℹ 60,455 more rows
…
3.5 Dictionary Approaches

We can extend the previous analysis by using dictionaries. You can create you own, you can use previously validates dictionaries, or you can use previously validates dictionaries that are already included with tidytext or quanteda (for sentiment analysis).

3.5.1 Sentiment Analysis

Let’s look at some pre-loaded sentiment dictionaries in tidytext:

AFFIN: measures sentiment with a numeric score between -5 and 5, and were validated in this paper.

get_sentiments("afinn")

## # A tibble: 2,477 × 2
##    word       value
##    <chr>      <dbl>
##  1 abandon       -2
##  2 abandoned     -2
##  3 abandons      -2
##  4 abducted      -2
##  5 abduction     -2
##  6 abductions    -2
##  7 abhor         -3
##  8 abhorred      -3
##  9 abhorrent     -3
## 10 abhors        -3
## # ℹ 2,467 more rows

bing: sentiment words found in online forums. More information here.

get_sentiments("bing")

## # A tibble: 6,786 × 2
##    word        sentiment
##    <chr>       <chr>    
##  1 2-faces     negative 
##  2 abnormal    negative 
##  3 abolish     negative 
##  4 abominable  negative 
##  5 abominably  negative 
##  6 abominate   negative 
##  7 abomination negative 
##  8 abort       negative 
##  9 aborted     negative 
## 10 aborts      negative 
## # ℹ 6,776 more rows

nrc: underpaid workers from Amazon mechanical Turk coded the emotional valence of a long list of terms, which were validated in this paper.

get_sentiments("nrc")

## # A tibble: 13,872 × 2
##    word        sentiment
##    <chr>       <chr>    
##  1 abacus      trust    
##  2 abandon     fear     
##  3 abandon     negative 
##  4 abandon     sadness  
##  5 abandoned   anger    
##  6 abandoned   fear     
##  7 abandoned   negative 
##  8 abandoned   sadness  
##  9 abandonment anger    
## 10 abandonment fear     
## # ℹ 13,862 more rows
…
##            >                 =========

##            > rows total       199,263

Let’s check the top positive words and the top negative words:

ventura_pos_neg %>%
  group_by(sentiment) %>%
  count(word, sort = TRUE)

## group_by: one grouping variable (sentiment)

## count: now 14,242 rows and 3 columns, one group variable remaining (sentiment)

## # A tibble: 14,242 × 3
## # Groups:   sentiment [3]
##    sentiment word          n
##    <chr>     <chr>     <int>
##  1 <NA>      trump     11676
##  2 <NA>      biden      7847
##  3 positive  president  4920
##  4 <NA>      wallace    4188
##  5 positive  debate     2693
##  6 <NA>      people     2591
##  7 <NA>      chris      2559
##  8 <NA>      joe        2380
##  9 <NA>      country    1589
## 10 <NA>      time       1226
## # ℹ 14,232 more rows
…
