Chapter 2 Week 1: A Primer on Using Text as Data | PS9594A: Computational Text Analysis
…
2.2 Get Data

Mendenhall (1887) argued that “every writer makes use of a vocabulary which is peculiar to himself, and the character of which does not materially change from year to
year during his productive,” and that one of these characteristics was the length of words. Mendenhall (1901) takes this further, and suggests that, given this assumption, Shakespeare and Bacon were not the same person[^1].

Let’s get a corpus–a collection of documents–that we can analyze. We can search the Gutenberg repository and create a corpus with some selected work.

gutenberg_metadata %>%
  filter(author == "Wilde, Oscar")

## # A tibble: 66 × 8
##    gutenberg_id title    author gutenberg_author_id language gutenberg_bookshelf
##           <int> <chr>    <chr>                <int> <chr>    <chr>              
##  1          174 The Pic… Wilde…                 111 en       "Gothic Fiction/Mo…
##  2          301 The Bal… Wilde…                 111 en       ""                 
##  3          773 Lord Ar… Wilde…                 111 en       "Contemporary Revi…
##  4          774 Essays … Wilde…                 111 en       ""                 
##  5          790 Lady Wi… Wilde…                 111 en       ""                 
##  6          844 The Imp… Wilde…                 111 en       "Plays"            
##  7          854 A Woman… Wilde…                 111 en       "Plays"            
##  8          873 A House… Wilde…                 111 en       "Opera"            
##  9          875 The Duc… Wilde…                 111 en       ""                 
## 10          885 An Idea… Wilde…                 111 en       "Plays"            
## # ℹ 56 more rows
## # ℹ 2 more variables: rights <chr>, has_text <lgl>
…
Now, we can change our unit of analysis to the token:

wilde_words <- wilde %>%
  # take the column text and divide it by words
  unnest_tokens(word, text)

wilde_words

## # A tibble: 31,979 × 4
##    gutenberg_id title                                               author word 
##           <int> <chr>                                               <chr>  <chr>
##  1          844 The Importance of Being Earnest: A Trivial Comedy … Wilde… the  
##  2          844 The Importance of Being Earnest: A Trivial Comedy … Wilde… impo…
##  3          844 The Importance of Being Earnest: A Trivial Comedy … Wilde… of   
##  4          844 The Importance of Being Earnest: A Trivial Comedy … Wilde… being
##  5          844 The Importance of Being Earnest: A Trivial Comedy … Wilde… earn…
##  6          844 The Importance of Being Earnest: A Trivial Comedy … Wilde… a    
##  7          844 The Importance of Being Earnest: A Trivial Comedy … Wilde… triv…
##  8          844 The Importance of Being Earnest: A Trivial Comedy … Wilde… come…
##  9          844 The Importance of Being Earnest: A Trivial Comedy … Wilde… for  
## 10          844 The Importance of Being Earnest: A Trivial Comedy … Wilde… seri…
## # ℹ 31,969 more rows
…
