Chapter 3 Week 3: Tokenization and Word Frequency | PS9594A: Computational Text Analysis
…
3.5 Dictionary Approaches

We can extend the previous analysis by using dictionaries. You can create you own, you can use previously validates dictionaries, or you can use previously validates dictionaries that are already included with tidytext or quanteda (for sentiment analysis).

3.5.1 Sentiment Analysis

Let’s look at some pre-loaded sentiment dictionaries in tidytext:

AFFIN: measures sentiment with a numeric score between -5 and 5, and were validated in this paper.

get_sentiments("afinn")

## # A tibble: 2,477 × 2
##    word       value
##    <chr>      <dbl>
##  1 abandon       -2
##  2 abandoned     -2
##  3 abandons      -2
##  4 abducted      -2
##  5 abduction     -2
##  6 abductions    -2
##  7 abhor         -3
##  8 abhorred      -3
##  9 abhorrent     -3
## 10 abhors        -3
## # ℹ 2,467 more rows

bing: sentiment words found in online forums. More information here.

get_sentiments("bing")

## # A tibble: 6,786 × 2
##    word        sentiment
##    <chr>       <chr>    
##  1 2-faces     negative 
##  2 abnormal    negative 
##  3 abolish     negative 
##  4 abominable  negative 
##  5 abominably  negative 
##  6 abominate   negative 
##  7 abomination negative 
##  8 abort       negative 
##  9 aborted     negative 
## 10 aborts      negative 
## # ℹ 6,776 more rows

nrc: underpaid workers from Amazon mechanical Turk coded the emotional valence of a long list of terms, which were validated in this paper.

get_sentiments("nrc")

## # A tibble: 13,872 × 2
##    word        sentiment
##    <chr>       <chr>    
##  1 abacus      trust    
##  2 abandon     fear     
##  3 abandon     negative 
##  4 abandon     sadness  
##  5 abandoned   anger    
##  6 abandoned   fear     
##  7 abandoned   negative 
##  8 abandoned   sadness  
##  9 abandonment anger    
## 10 abandonment fear     
## # ℹ 13,862 more rows
…
##            >                 =========

##            > rows total       199,263

Let’s check the top positive words and the top negative words:

ventura_pos_neg %>%
  group_by(sentiment) %>%
  count(word, sort = TRUE)

## group_by: one grouping variable (sentiment)

## count: now 14,242 rows and 3 columns, one group variable remaining (sentiment)

## # A tibble: 14,242 × 3
## # Groups:   sentiment [3]
##    sentiment word          n
##    <chr>     <chr>     <int>
##  1 <NA>      trump     11676
##  2 <NA>      biden      7847
##  3 positive  president  4920
##  4 <NA>      wallace    4188
##  5 positive  debate     2693
##  6 <NA>      people     2591
##  7 <NA>      chris      2559
##  8 <NA>      joe        2380
##  9 <NA>      country    1589
## 10 <NA>      time       1226
## # ℹ 14,232 more rows
…
